[
{
    "model": "report_builder.filterfield",
    "pk": 8,
    "fields": {
        "report": 11,
        "path": "",
        "path_verbose": "",
        "field": "latitudine",
        "field_verbose": "Latitudine del luogo [DecimalField]",
        "position": 0,
        "filter_type": "gt",
        "filter_delta": null,
        "filter_value": "-100",
        "filter_value2": "",
        "exclude": false
    }
},
{
    "model": "report_builder.filterfield",
    "pk": 12,
    "fields": {
        "report": 19,
        "path": "stato__",
        "path_verbose": "stato",
        "field": "codice",
        "field_verbose": "Codice Stato [CharField]",
        "position": 0,
        "filter_type": "in",
        "filter_delta": null,
        "filter_value": "10,20,25,30,40,50,52,55,57,60",
        "filter_value2": "",
        "exclude": false
    }
},
{
    "model": "report_builder.filterfield",
    "pk": 27,
    "fields": {
        "report": 44,
        "path": "compagnia__",
        "path_verbose": "compagnia",
        "field": "nome",
        "field_verbose": "Nome [CharField]",
        "position": 0,
        "filter_type": "icontains",
        "filter_delta": null,
        "filter_value": "reale",
        "filter_value2": "",
        "exclude": false
    }
},
{
    "model": "report_builder.filterfield",
    "pk": 49,
    "fields": {
        "report": 50,
        "path": "",
        "path_verbose": "",
        "field": "data_assegnazione",
        "field_verbose": "Data Incarico [DateField]",
        "position": 0,
        "filter_type": "gte",
        "filter_delta": null,
        "filter_value": "01/01/2018",
        "filter_value2": "",
        "exclude": false
    }
},
{
    "model": "report_builder.filterfield",
    "pk": 57,
    "fields": {
        "report": 53,
        "path": "compagnia__",
        "path_verbose": "compagnia",
        "field": "nome",
        "field_verbose": "Nome [CharField]",
        "position": 1,
        "filter_type": "icontains",
        "filter_delta": null,
        "filter_value": "Cattolica",
        "filter_value2": "",
        "exclude": false
    }
},
{
    "model": "report_builder.filterfield",
    "pk": 62,
    "fields": {
        "report": 43,
        "path": "compagnia1__",
        "path_verbose": "compagnia",
        "field": "nome",
        "field_verbose": "Nome [CharField]",
        "position": 0,
        "filter_type": "icontains",
        "filter_delta": null,
        "filter_value": "AVIVA",
        "filter_value2": "",
        "exclude": false
    }
},
{
    "model": "report_builder.filterfield",
    "pk": 64,
    "fields": {
        "report": 54,
        "path": "",
        "path_verbose": "",
        "field": "data_assegnazione",
        "field_verbose": "Data Incarico [DateField]",
        "position": 0,
        "filter_type": "lt",
        "filter_delta": null,
        "filter_value": "03/01/2016",
        "filter_value2": "",
        "exclude": false
    }
},
{
    "model": "report_builder.filterfield",
    "pk": 65,
    "fields": {
        "report": 54,
        "path": "stato__",
        "path_verbose": "stato",
        "field": "codice",
        "field_verbose": "Codice Stato [CharField]",
        "position": 0,
        "filter_type": "in",
        "filter_delta": null,
        "filter_value": "30,40,50,52,55,57",
        "filter_value2": "",
        "exclude": false
    }
},
{
    "model": "report_builder.filterfield",
    "pk": 67,
    "fields": {
        "report": 44,
        "path": "agenzia__",
        "path_verbose": "agenzia",
        "field": "codice",
        "field_verbose": "Codice [CharField]",
        "position": 0,
        "filter_type": "icontains",
        "filter_delta": null,
        "filter_value": "401",
        "filter_value2": "",
        "exclude": false
    }
},
{
    "model": "report_builder.filterfield",
    "pk": 68,
    "fields": {
        "report": 44,
        "path": "",
        "path_verbose": "None",
        "field": "data_assegnazione",
        "field_verbose": "Data Incarico [DateField]",
        "position": 0,
        "filter_type": "gt",
        "filter_delta": null,
        "filter_value": "12/31/2015",
        "filter_value2": "",
        "exclude": false
    }
},
{
    "model": "report_builder.filterfield",
    "pk": 80,
    "fields": {
        "report": 58,
        "path": "",
        "path_verbose": "",
        "field": "data_restituzione",
        "field_verbose": "Data Restituzione [DateField]",
        "position": 0,
        "filter_type": "gte",
        "filter_delta": null,
        "filter_value": "01/01/2018",
        "filter_value2": "",
        "exclude": false
    }
},
{
    "model": "report_builder.filterfield",
    "pk": 88,
    "fields": {
        "report": 53,
        "path": "",
        "path_verbose": "",
        "field": "data_assegnazione",
        "field_verbose": "Data Incarico [DateField]",
        "position": 3,
        "filter_type": "gt",
        "filter_delta": null,
        "filter_value": "12/31/2016",
        "filter_value2": "",
        "exclude": false
    }
},
{
    "model": "report_builder.filterfield",
    "pk": 92,
    "fields": {
        "report": 61,
        "path": "compagnia__",
        "path_verbose": "compagnia",
        "field": "nome",
        "field_verbose": "Nome [CharField]",
        "position": 0,
        "filter_type": "icontains",
        "filter_delta": null,
        "filter_value": "avipop",
        "filter_value2": "",
        "exclude": false
    }
},
{
    "model": "report_builder.filterfield",
    "pk": 96,
    "fields": {
        "report": 21,
        "path": "",
        "path_verbose": "",
        "field": "data_restituzione",
        "field_verbose": "Data Restituzione [DateField]",
        "position": 0,
        "filter_type": "gt",
        "filter_delta": null,
        "filter_value": "01/01/2018",
        "filter_value2": "",
        "exclude": false
    }
},
{
    "model": "report_builder.filterfield",
    "pk": 103,
    "fields": {
        "report": 58,
        "path": "",
        "path_verbose": "",
        "field": "data_restituzione",
        "field_verbose": "Data Restituzione [DateField]",
        "position": 0,
        "filter_type": "lte",
        "filter_delta": null,
        "filter_value": "12/20/2018",
        "filter_value2": "",
        "exclude": false
    }
},
{
    "model": "report_builder.filterfield",
    "pk": 105,
    "fields": {
        "report": 65,
        "path": "compagnia__",
        "path_verbose": "compagnia",
        "field": "nome",
        "field_verbose": "Nome [CharField]",
        "position": 0,
        "filter_type": "contains",
        "filter_delta": null,
        "filter_value": "mediolanum",
        "filter_value2": "",
        "exclude": false
    }
},
{
    "model": "report_builder.filterfield",
    "pk": 106,
    "fields": {
        "report": 65,
        "path": "",
        "path_verbose": "None",
        "field": "data_restituzione",
        "field_verbose": "Data Restituzione [DateField]",
        "position": 0,
        "filter_type": "gt",
        "filter_delta": null,
        "filter_value": "07/05/2018",
        "filter_value2": "",
        "exclude": false
    }
},
{
    "model": "report_builder.filterfield",
    "pk": 107,
    "fields": {
        "report": 65,
        "path": "ispettorato__",
        "path_verbose": "ispettorato",
        "field": "codice",
        "field_verbose": "Codice [CharField]",
        "position": 0,
        "filter_type": "contains",
        "filter_delta": null,
        "filter_value": "01",
        "filter_value2": "",
        "exclude": true
    }
},
{
    "model": "report_builder.filterfield",
    "pk": 115,
    "fields": {
        "report": 67,
        "path": "",
        "path_verbose": "None",
        "field": "data_restituzione",
        "field_verbose": "Data Restituzione [DateField]",
        "position": 0,
        "filter_type": "gte",
        "filter_delta": null,
        "filter_value": "01/01/2018",
        "filter_value2": "",
        "exclude": false
    }
},
{
    "model": "report_builder.filterfield",
    "pk": 116,
    "fields": {
        "report": 67,
        "path": "",
        "path_verbose": "None",
        "field": "data_restituzione",
        "field_verbose": "Data Restituzione [DateField]",
        "position": 0,
        "filter_type": "lte",
        "filter_delta": null,
        "filter_value": "05/28/2018",
        "filter_value2": "",
        "exclude": false
    }
},
{
    "model": "report_builder.filterfield",
    "pk": 124,
    "fields": {
        "report": 55,
        "path": "stato__",
        "path_verbose": "stato",
        "field": "codice",
        "field_verbose": "Codice Stato [CharField]",
        "position": 0,
        "filter_type": "icontains",
        "filter_delta": null,
        "filter_value": "ok",
        "filter_value2": "",
        "exclude": false
    }
},
{
    "model": "report_builder.filterfield",
    "pk": 150,
    "fields": {
        "report": 53,
        "path": "compagnia__",
        "path_verbose": "compagnia",
        "field": "nome",
        "field_verbose": "Nome [CharField]",
        "position": 2,
        "filter_type": "icontains",
        "filter_delta": null,
        "filter_value": "Tua",
        "filter_value2": "",
        "exclude": false
    }
},
{
    "model": "report_builder.filterfield",
    "pk": 151,
    "fields": {
        "report": 53,
        "path": "",
        "path_verbose": "",
        "field": "data_restituzione",
        "field_verbose": "Data Restituzione [DateField]",
        "position": 0,
        "filter_type": "icontains",
        "filter_delta": null,
        "filter_value": "12/31/2016",
        "filter_value2": "",
        "exclude": false
    }
},
{
    "model": "report_builder.filterfield",
    "pk": 156,
    "fields": {
        "report": 77,
        "path": "compagnia__",
        "path_verbose": "compagnia",
        "field": "nome",
        "field_verbose": "Nome [CharField]",
        "position": 0,
        "filter_type": "icontains",
        "filter_delta": null,
        "filter_value": "unipol",
        "filter_value2": "",
        "exclude": false
    }
},
{
    "model": "report_builder.filterfield",
    "pk": 157,
    "fields": {
        "report": 77,
        "path": "stato__",
        "path_verbose": "stato",
        "field": "codice",
        "field_verbose": "Codice Stato [CharField]",
        "position": 0,
        "filter_type": "in",
        "filter_delta": null,
        "filter_value": "20,25,30,40,50,52,55,57,60",
        "filter_value2": "",
        "exclude": false
    }
},
{
    "model": "report_builder.filterfield",
    "pk": 159,
    "fields": {
        "report": 58,
        "path": "compagnia__",
        "path_verbose": "compagnia",
        "field": "nome",
        "field_verbose": "Nome [CharField]",
        "position": 0,
        "filter_type": "contains",
        "filter_delta": null,
        "filter_value": "Aviva",
        "filter_value2": "",
        "exclude": false
    }
},
{
    "model": "report_builder.filterfield",
    "pk": 173,
    "fields": {
        "report": 82,
        "path": "",
        "path_verbose": "",
        "field": "data_restituzione",
        "field_verbose": "Data Restituzione [DateField]",
        "position": 0,
        "filter_type": "gt",
        "filter_delta": null,
        "filter_value": "01/01/2018",
        "filter_value2": "",
        "exclude": false
    }
},
{
    "model": "report_builder.filterfield",
    "pk": 174,
    "fields": {
        "report": 82,
        "path": "compagnia__",
        "path_verbose": "compagnia",
        "field": "nome",
        "field_verbose": "Nome [CharField]",
        "position": 0,
        "filter_type": "icontains",
        "filter_delta": null,
        "filter_value": "Reale ",
        "filter_value2": "",
        "exclude": false
    }
},
{
    "model": "report_builder.filterfield",
    "pk": 175,
    "fields": {
        "report": 82,
        "path": "compagnia__",
        "path_verbose": "compagnia",
        "field": "nome",
        "field_verbose": "Nome [CharField]",
        "position": 0,
        "filter_type": "icontains",
        "filter_delta": null,
        "filter_value": "Reale",
        "filter_value2": "",
        "exclude": false
    }
},
{
    "model": "report_builder.filterfield",
    "pk": 176,
    "fields": {
        "report": 82,
        "path": "",
        "path_verbose": "",
        "field": "data_restituzione",
        "field_verbose": "Data Restituzione [DateField]",
        "position": 0,
        "filter_type": "lte",
        "filter_delta": null,
        "filter_value": "09/30/2018",
        "filter_value2": "",
        "exclude": false
    }
},
{
    "model": "report_builder.filterfield",
    "pk": 182,
    "fields": {
        "report": 82,
        "path": "ispettorato__",
        "path_verbose": "ispettorato",
        "field": "codice",
        "field_verbose": "Codice [CharField]",
        "position": 0,
        "filter_type": "in",
        "filter_delta": null,
        "filter_value": "040,024,",
        "filter_value2": "",
        "exclude": false
    }
},
{
    "model": "report_builder.filterfield",
    "pk": 193,
    "fields": {
        "report": 82,
        "path": "",
        "path_verbose": "",
        "field": "liq_arrotondata_totale",
        "field_verbose": "Liquidazione concordata [DecimalField]",
        "position": 0,
        "filter_type": "gte",
        "filter_delta": null,
        "filter_value": "2",
        "filter_value2": "",
        "exclude": false
    }
},
{
    "model": "report_builder.filterfield",
    "pk": 194,
    "fields": {
        "report": 82,
        "path": "",
        "path_verbose": "",
        "field": "liq_arrotondata_totale",
        "field_verbose": "Liquidazione concordata [DecimalField]",
        "position": 0,
        "filter_type": "lte",
        "filter_delta": null,
        "filter_value": "10000",
        "filter_value2": "",
        "exclude": false
    }
},
{
    "model": "report_builder.filterfield",
    "pk": 204,
    "fields": {
        "report": 19,
        "path": "compagnia__",
        "path_verbose": "compagnia",
        "field": "nome",
        "field_verbose": "Nome [CharField]",
        "position": 0,
        "filter_type": "icontains",
        "filter_delta": null,
        "filter_value": "Vittoria",
        "filter_value2": "",
        "exclude": false
    }
},
{
    "model": "report_builder.filterfield",
    "pk": 212,
    "fields": {
        "report": 91,
        "path": "",
        "path_verbose": "",
        "field": "data_restituzione",
        "field_verbose": "Data Restituzione [DateField]",
        "position": 0,
        "filter_type": "gt",
        "filter_delta": null,
        "filter_value": "01/01/2018",
        "filter_value2": "",
        "exclude": false
    }
},
{
    "model": "report_builder.filterfield",
    "pk": 214,
    "fields": {
        "report": 61,
        "path": "stato__",
        "path_verbose": "stato",
        "field": "codice",
        "field_verbose": "Codice Stato [CharField]",
        "position": 0,
        "filter_type": "in",
        "filter_delta": null,
        "filter_value": "20,25,30,40,50,52,55,57,60",
        "filter_value2": "",
        "exclude": false
    }
},
{
    "model": "report_builder.filterfield",
    "pk": 222,
    "fields": {
        "report": 95,
        "path": "",
        "path_verbose": "",
        "field": "data_assegnazione",
        "field_verbose": "Data Incarico [DateField]",
        "position": 0,
        "filter_type": "gte",
        "filter_delta": null,
        "filter_value": "01/01/2017",
        "filter_value2": "",
        "exclude": false
    }
},
{
    "model": "report_builder.filterfield",
    "pk": 237,
    "fields": {
        "report": 4,
        "path": "stato__",
        "path_verbose": "stato",
        "field": "codice",
        "field_verbose": "Codice Stato [CharField]",
        "position": 0,
        "filter_type": "in",
        "filter_delta": null,
        "filter_value": "20,25,30,40,50,52,55,57,60",
        "filter_value2": "",
        "exclude": false
    }
},
{
    "model": "report_builder.filterfield",
    "pk": 238,
    "fields": {
        "report": 51,
        "path": "",
        "path_verbose": "",
        "field": "data_restituzione",
        "field_verbose": "Data Restituzione [DateField]",
        "position": 0,
        "filter_type": "gte",
        "filter_delta": null,
        "filter_value": "01/01/2018",
        "filter_value2": "",
        "exclude": false
    }
},
{
    "model": "report_builder.filterfield",
    "pk": 248,
    "fields": {
        "report": 20,
        "path": "",
        "path_verbose": "",
        "field": "data_assegnazione",
        "field_verbose": "Data Incarico [DateField]",
        "position": 1,
        "filter_type": "gte",
        "filter_delta": null,
        "filter_value": "01/01/2018",
        "filter_value2": "",
        "exclude": false
    }
},
{
    "model": "report_builder.filterfield",
    "pk": 265,
    "fields": {
        "report": 81,
        "path": "",
        "path_verbose": "None",
        "field": "data_restituzione",
        "field_verbose": "Data Restituzione [DateField]",
        "position": 0,
        "filter_type": "gte",
        "filter_delta": null,
        "filter_value": "01/01/2018",
        "filter_value2": "",
        "exclude": false
    }
},
{
    "model": "report_builder.filterfield",
    "pk": 274,
    "fields": {
        "report": 65,
        "path": "",
        "path_verbose": "None",
        "field": "data_assegnazione",
        "field_verbose": "Data Incarico [DateField]",
        "position": 0,
        "filter_type": "gte",
        "filter_delta": null,
        "filter_value": "01/01/2018",
        "filter_value2": "",
        "exclude": false
    }
},
{
    "model": "report_builder.filterfield",
    "pk": 280,
    "fields": {
        "report": 56,
        "path": "",
        "path_verbose": "",
        "field": "data_restituzione",
        "field_verbose": "Data Restituzione [DateField]",
        "position": 0,
        "filter_type": "lte",
        "filter_delta": null,
        "filter_value": "09/30/2018",
        "filter_value2": "",
        "exclude": false
    }
},
{
    "model": "report_builder.filterfield",
    "pk": 288,
    "fields": {
        "report": 108,
        "path": "ispettorato__",
        "path_verbose": "ispettorato",
        "field": "codice",
        "field_verbose": "Codice [CharField]",
        "position": 0,
        "filter_type": "in",
        "filter_delta": null,
        "filter_value": "040,024,",
        "filter_value2": "",
        "exclude": false
    }
},
{
    "model": "report_builder.filterfield",
    "pk": 289,
    "fields": {
        "report": 108,
        "path": "",
        "path_verbose": "",
        "field": "liq_arrotondata_totale",
        "field_verbose": "Liquidazione concordata [DecimalField]",
        "position": 0,
        "filter_type": "gte",
        "filter_delta": null,
        "filter_value": "2",
        "filter_value2": "",
        "exclude": false
    }
},
{
    "model": "report_builder.filterfield",
    "pk": 290,
    "fields": {
        "report": 108,
        "path": "",
        "path_verbose": "",
        "field": "liq_arrotondata_totale",
        "field_verbose": "Liquidazione concordata [DecimalField]",
        "position": 0,
        "filter_type": "lte",
        "filter_delta": null,
        "filter_value": "10000",
        "filter_value2": "",
        "exclude": false
    }
},
{
    "model": "report_builder.filterfield",
    "pk": 291,
    "fields": {
        "report": 108,
        "path": "compagnia__",
        "path_verbose": "compagnia",
        "field": "nome",
        "field_verbose": "Nome [CharField]",
        "position": 0,
        "filter_type": "icontains",
        "filter_delta": null,
        "filter_value": "Reale ",
        "filter_value2": "",
        "exclude": false
    }
},
{
    "model": "report_builder.filterfield",
    "pk": 292,
    "fields": {
        "report": 108,
        "path": "compagnia__",
        "path_verbose": "compagnia",
        "field": "nome",
        "field_verbose": "Nome [CharField]",
        "position": 0,
        "filter_type": "icontains",
        "filter_delta": null,
        "filter_value": "Reale",
        "filter_value2": "",
        "exclude": false
    }
},
{
    "model": "report_builder.filterfield",
    "pk": 293,
    "fields": {
        "report": 108,
        "path": "",
        "path_verbose": "",
        "field": "data_restituzione",
        "field_verbose": "Data Restituzione [DateField]",
        "position": 0,
        "filter_type": "gt",
        "filter_delta": null,
        "filter_value": "01/01/2018",
        "filter_value2": "",
        "exclude": false
    }
},
{
    "model": "report_builder.filterfield",
    "pk": 294,
    "fields": {
        "report": 108,
        "path": "",
        "path_verbose": "",
        "field": "data_restituzione",
        "field_verbose": "Data Restituzione [DateField]",
        "position": 0,
        "filter_type": "lte",
        "filter_delta": null,
        "filter_value": "09/30/2018",
        "filter_value2": "",
        "exclude": false
    }
},
{
    "model": "report_builder.filterfield",
    "pk": 295,
    "fields": {
        "report": 108,
        "path": "",
        "path_verbose": "",
        "field": "iban",
        "field_verbose": "IBAN [CharField]",
        "position": 0,
        "filter_type": "icontains",
        "filter_delta": null,
        "filter_value": "iban",
        "filter_value2": "",
        "exclude": false
    }
},
{
    "model": "report_builder.filterfield",
    "pk": 299,
    "fields": {
        "report": 17,
        "path": "",
        "path_verbose": "",
        "field": "data_assegnazione",
        "field_verbose": "Data Incarico [DateField]",
        "position": 0,
        "filter_type": "gt",
        "filter_delta": null,
        "filter_value": "01/01/2018",
        "filter_value2": "",
        "exclude": false
    }
},
{
    "model": "report_builder.filterfield",
    "pk": 300,
    "fields": {
        "report": 17,
        "path": "perito__",
        "path_verbose": "user",
        "field": "last_name",
        "field_verbose": "cognome [CharField]",
        "position": 0,
        "filter_type": "icontains",
        "filter_delta": null,
        "filter_value": "Belluco",
        "filter_value2": "",
        "exclude": false
    }
},
{
    "model": "report_builder.filterfield",
    "pk": 308,
    "fields": {
        "report": 93,
        "path": "organizzazione__",
        "path_verbose": "coreorganizzazione",
        "field": "nome",
        "field_verbose": "nome",
        "position": 0,
        "filter_type": "contains",
        "filter_delta": null,
        "filter_value": "SO.RI.DI.",
        "filter_value2": "",
        "exclude": false
    }
},
{
    "model": "report_builder.filterfield",
    "pk": 309,
    "fields": {
        "report": 93,
        "path": "",
        "path_verbose": "",
        "field": "data_assegnazione",
        "field_verbose": "data assegnazione",
        "position": 1,
        "filter_type": "gte",
        "filter_delta": null,
        "filter_value": "2018-01-11",
        "filter_value2": "",
        "exclude": false
    }
},
{
    "model": "report_builder.filterfield",
    "pk": 310,
    "fields": {
        "report": 93,
        "path": "",
        "path_verbose": "",
        "field": "data_assegnazione",
        "field_verbose": "data assegnazione",
        "position": 2,
        "filter_type": "lte",
        "filter_delta": null,
        "filter_value": "2018-12-31",
        "filter_value2": "",
        "exclude": false
    }
},
{
    "model": "report_builder.filterfield",
    "pk": 312,
    "fields": {
        "report": 8,
        "path": "",
        "path_verbose": "",
        "field": "data_restituzione",
        "field_verbose": "data restituzione",
        "position": 0,
        "filter_type": "gte",
        "filter_delta": null,
        "filter_value": "2019-01-01",
        "filter_value2": "",
        "exclude": false
    }
},
{
    "model": "report_builder.filterfield",
    "pk": 319,
    "fields": {
        "report": 41,
        "path": "perito__",
        "path_verbose": "authuser",
        "field": "last_name",
        "field_verbose": "last name",
        "position": 0,
        "filter_type": "exact",
        "filter_delta": null,
        "filter_value": "Trentin",
        "filter_value2": "",
        "exclude": false
    }
},
{
    "model": "report_builder.filterfield",
    "pk": 320,
    "fields": {
        "report": 41,
        "path": "perito__",
        "path_verbose": "authuser",
        "field": "first_name",
        "field_verbose": "first name",
        "position": 1,
        "filter_type": "exact",
        "filter_delta": null,
        "filter_value": "Andrea",
        "filter_value2": "",
        "exclude": false
    }
},
{
    "model": "report_builder.filterfield",
    "pk": 321,
    "fields": {
        "report": 41,
        "path": "",
        "path_verbose": "",
        "field": "data_assegnazione",
        "field_verbose": "data assegnazione",
        "position": 2,
        "filter_type": "gte",
        "filter_delta": null,
        "filter_value": "2018-10-01",
        "filter_value2": "",
        "exclude": false
    }
},
{
    "model": "report_builder.filterfield",
    "pk": 322,
    "fields": {
        "report": 41,
        "path": "",
        "path_verbose": "",
        "field": "data_assegnazione",
        "field_verbose": "data assegnazione",
        "position": 3,
        "filter_type": "lte",
        "filter_delta": null,
        "filter_value": "2019-01-10",
        "filter_value2": "",
        "exclude": false
    }
},
{
    "model": "report_builder.filterfield",
    "pk": 323,
    "fields": {
        "report": 6,
        "path": "",
        "path_verbose": "",
        "field": "data_fatturazione",
        "field_verbose": "data fatturazione",
        "position": 0,
        "filter_type": "gte",
        "filter_delta": null,
        "filter_value": "2018-12-01",
        "filter_value2": "",
        "exclude": false
    }
},
{
    "model": "report_builder.filterfield",
    "pk": 324,
    "fields": {
        "report": 6,
        "path": "",
        "path_verbose": "",
        "field": "data_fatturazione",
        "field_verbose": "data fatturazione",
        "position": 1,
        "filter_type": "lte",
        "filter_delta": null,
        "filter_value": "2018-12-31",
        "filter_value2": "",
        "exclude": false
    }
},
{
    "model": "report_builder.filterfield",
    "pk": 326,
    "fields": {
        "report": 99,
        "path": "",
        "path_verbose": "",
        "field": "data_assegnazione",
        "field_verbose": "Data Incarico [DateField]",
        "position": 0,
        "filter_type": "lte",
        "filter_delta": null,
        "filter_value": "2018-12-31",
        "filter_value2": "",
        "exclude": false
    }
},
{
    "model": "report_builder.filterfield",
    "pk": 327,
    "fields": {
        "report": 99,
        "path": "",
        "path_verbose": "",
        "field": "data_assegnazione",
        "field_verbose": "data assegnazione",
        "position": 1,
        "filter_type": "gte",
        "filter_delta": null,
        "filter_value": "2018-11-01",
        "filter_value2": "",
        "exclude": false
    }
}
]
